…
#### Downloading and exploring the data 
```
occ.data <- occ(query = 'Accipiter striatus', from = 'gbif')
occ.data$gbif						
Species [Accipiter striatus (500)] 
First 10 rows of [Accipiter_striatus]

# A tibble: 500 x 97
                 name  longitude latitude  prov         issues        key                           datasetKey                     publishingOrgKey publishingCountry
                <chr>      <dbl>    <dbl> <chr>          <chr>      <int>                                <chr>                                <chr>             <chr>
 1 Accipiter striatus -122.31411 37.98893  gbif cdround,gass84 1802760979 50c9509d-22c7-4a22-a47d-8c48425ef4a7 28eb1a3f-1c15-4a95-931a-4af90ecb574d                US
 2 Accipiter striatus  -74.05970 40.09627  gbif cdround,gass84 1806363338 50c9509d-22c7-4a22-a47d-8c48425ef4a7 28eb1a3f-1c15-4a95-931a-4af90ecb574d                US
 3 Accipiter striatus  -98.56255 33.81266  gbif cdround,gass84 1806341314 50c9509d-22c7-4a22-a47d-8c48425ef4a7 28eb1a3f-1c15-4a95-931a-4af90ecb574d                US
 4 Accipiter striatus -122.36031 37.02475  gbif cdround,gass84 1802763269 50c9509d-22c7-4a22-a47d-8c48425ef4a7 28eb1a3f-1c15-4a95-931a-4af90ecb574d                US
 5 Accipiter striatus -121.50013 37.17425  gbif cdround,gass84 1806339729 50c9509d-22c7-4a22-a47d-8c48425ef4a7 28eb1a3f-1c15-4a95-931a-4af90ecb574d                US
 6 Accipiter striatus -123.97605 49.18567  gbif cdround,gass84 1802771195 50c9509d-22c7-4a22-a47d-8c48425ef4a7 28eb1a3f-1c15-4a95-931a-4af90ecb574d                US
 7 Accipiter striatus -103.46419 50.07486  gbif cdround,gass84 1802777994 50c9509d-22c7-4a22-a47d-8c48425ef4a7 28eb1a3f-1c15-4a95-931a-4af90ecb574d                US
 8 Accipiter striatus -115.09784 36.15690  gbif cdround,gass84 1806356037 50c9509d-22c7-4a22-a47d-8c48425ef4a7 28eb1a3f-1c15-4a95-931a-4af90ecb574d                US
 9 Accipiter striatus -122.26754 37.08367  gbif cdround,gass84 1807330165 50c9509d-22c7-4a22-a47d-8c48425ef4a7 28eb1a3f-1c15-4a95-931a-4af90ecb574d                US
10 Accipiter striatus -121.91616 37.96679  gbif cdround,gass84 1802790830 50c9509d-22c7-4a22-a47d-8c48425ef4a7 28eb1a3f-1c15-4a95-931a-4af90ecb574d                US
# ... with 490 more rows, and 88 more variables: protocol <chr>, lastCrawled <chr>, lastParsed <chr>, crawlId <int>, basisOfRecord <chr>, taxonKey <int>,
#   kingdomKey <int>, phylumKey <int>, classKey <int>, orderKey <int>, familyKey <int>, genusKey <int>, scientificName <chr>, kingdom <chr>, phylum <chr>,
#   order <chr>, family <chr>, genus <chr>, genericName <chr>, specificEpithet <chr>, taxonRank <chr>, dateIdentified <chr>, coordinateUncertaintyInMeters <dbl>,
#   year <int>, month <int>, day <int>, eventDate <date>, modified <chr>, lastInterpreted <chr>, references <chr>, license <chr>, geodeticDatum <chr>, class <chr>,
#   countryCode <chr>, country <chr>, rightsHolder <chr>, identifier <chr>, informationWithheld <chr>, verbatimEventDate <chr>, datasetName <chr>,
#   collectionCode <chr>, gbifID <chr>, verbatimLocality <chr>, occurrenceID <chr>, taxonID <chr>, catalogNumber <chr>, recordedBy <chr>,
#   `http://unknown.org/occurrenceDetails` <chr>, institutionCode <chr>, rights <chr>, eventTime <chr>, identificationID <chr>, occurrenceRemarks <chr>,
#   identificationRemarks <chr>, individualCount <int>, elevation <dbl>, elevationAccuracy <dbl>, continent <chr>, stateProvince <chr>, institutionID <chr>,
#   county <chr>, identificationVerificationStatus <chr>, language <chr>, type <chr>, preparations <chr>, locationAccordingTo <chr>, identifiedBy <chr>,
…
